%YAML 1.1
%TAG !u! tag:unity3d.com,2011:
--- !u!114 &11400000
MonoBehaviour:
  m_ObjectHideFlags: 0
  m_CorrespondingSourceObject: {fileID: 0}
  m_PrefabInstance: {fileID: 0}
  m_PrefabAsset: {fileID: 0}
  m_GameObject: {fileID: 0}
  m_Enabled: 1
  m_EditorHideFlags: 0
  m_Script: {fileID: 11500000, guid: 0d9debaa8bf724446b5f70c82e4f785b, type: 3}
  m_Name: 17A269E6-2271-4D80-B76B-B11745A20681
  m_EditorClassIdentifier: 
  objectName: bird
  id: 1544377644
  guid: 17A269E6-2271-4D80-B76B-B11745A20681
